commit 875b87feef2fbef2827482559377b3ea00fba9e2
Author: Manish Singh <manish.jdsingh@gmail.com>
Date:   Thu Jul 9 16:23:58 2020 +0530

    add three.py and readme.md

commit f7c43d92df1fe1036d95f8ad860424f6e2117608
Author: Manish Singh <manish.jdsingh@gmail.com>
Date:   Thu Jul 9 16:07:03 2020 +0530

    commit two.py

commit 52b6c3e742e56273aee435e45ea93e8df89e7256
Author: Manish Singh <manish.jdsingh@gmail.com>
Date:   Thu Jul 9 16:02:55 2020 +0530

    initial message
